Training-2
…
Summry statistics

a. Average NRS by treatment and visit

summary = sample_cm %>%
  group_by(trt,avisitn) %>%
  get_summary_stats(aval, type = "mean_sd") %>%
  #select(trt,avisitn,n,mean,sd)
  select(trt,avisitn,everything(),-variable)
summary

## # A tibble: 26 x 5
##    trt   avisitn     n  mean    sd
##    <fct>   <dbl> <dbl> <dbl> <dbl>
##  1 A         100    40 4.45  2.75 
##  2 A         101    39 2.01  1.50 
##  3 A         102    38 1.22  1.36 
##  4 A         103    38 1.09  1.28 
##  5 A         104    38 1.00  1.02 
##  6 A         105    38 0.949 1.32 
##  7 A         106    39 0.777 1.17 
##  8 A         107    38 0.631 0.875
##  9 A         108    37 0.718 1.09 
## 10 A         109    37 0.825 1.34 
## #  with 16 more rows
…
