Training-3
…
Define an effecive pain reduction from baseline to be greater than 4 by NRS [0-10]

nrs_effective = nrs_sample %>%
  mutate(vsn=as.numeric(vsn),
         aval= round(aval,0)) %>%
  filter(avisitn != 100) %>%
  right_join(nrs_baseline) %>%
  mutate(ref=bsl-4,
         effective_reduction=ifelse(aval<=ref,"Y","N")) %>%
  select(subjid,vsn,aval,bsl,effective_reduction) 

nrs_effective

## # A tibble: 155 x 5
##    subjid   vsn  aval   bsl effective_reduction
##    <chr>  <dbl> <dbl> <dbl> <chr>              
##  1 201001     1     2    10 Y                  
##  2 201003     1     3     8 Y                  
##  3 203005     1     7     8 N                  
##  4 203006     1     3     8 Y                  
##  5 301003     1     2     8 Y                  
##  6 303001     1     1     9 Y                  
##  7 402011     1     2     9 Y                  
##  8 406002     1     2     8 Y                  
##  9 413002     1     3     8 Y                  
## 10 413004     1     5     8 N                  
## #  with 145 more rows
…
